{
  "project_info": {
    "project_number": "529853640618",
    "firebase_url": "https://samplefirebaseproject-187613.firebaseio.com",
    "project_id": "samplefirebaseproject-187613",
    "storage_bucket": "samplefirebaseproject-187613.appspot.com"
  },
  "client": [
    {
      "client_info": {
        "mobilesdk_app_id": "1:529853640618:android:e65f78c688923e70",
        "android_client_info": {
          "package_name": "com.monicalabbao.samplefirebase.samplefirebaseapplication"
        }
      },
      "oauth_client": [
        {
          "client_id": "529853640618-4p4uuv52t4mec3at0i81sh2vv0cc3ocd.apps.googleusercontent.com",
          "client_type": 3
        }
      ],
      "api_key": [
        {
          "current_key": "AIzaSyDGDy9nGRAlrYXg9YJJXmxY0r7F1c5Tw4k"
        }
      ],
      "services": {
        "analytics_service": {
          "status": 1
        },
        "appinvite_service": {
          "status": 1,
          "other_platform_oauth_client": []
        },
        "ads_service": {
          "status": 2
        }
      }
    },
    {
      "client_info": {
        "mobilesdk_app_id": "1:529853640618:android:ca805a53f8884424",
        "android_client_info": {
          "package_name": "com.xaman.gov"
        }
      },
      "oauth_client": [
        {
          "client_id": "529853640618-4p4uuv52t4mec3at0i81sh2vv0cc3ocd.apps.googleusercontent.com",
          "client_type": 3
        }
      ],
      "api_key": [
        {
          "current_key": "AIzaSyDGDy9nGRAlrYXg9YJJXmxY0r7F1c5Tw4k"
        }
      ],
      "services": {
        "analytics_service": {
          "status": 1
        },
        "appinvite_service": {
          "status": 1,
          "other_platform_oauth_client": []
        },
        "ads_service": {
          "status": 2
        }
      }
    }
  ],
  "configuration_version": "1"
}